_build/default/Computer_tb.vcd
$date
	Tue Aug 26 18:55:05 2025
$end
$version
	Icarus Verilog
$end
$timescale
	1ps
$end
$scope module Computer_tb $end
$var wire 5 ! led [4:0] $end
$var reg 1 " clk $end
$var reg 4 # pmod [3:0] $end
$scope module uut $end
$var wire 1 " clk $end
$var wire 4 $ pmod [3:0] $end
$var wire 1 % reset $end
$var wire 1 & writeM $end
$var wire 16 ' pc [15:0] $end
$var wire 16 ( outM [15:0] $end
$var wire 5 ) led [4:0] $end
$var wire 16 * instruction [15:0] $end
$var wire 16 + inM [15:0] $end
$var wire 16 , addressM [15:0] $end
$scope module cpu_inst $end
$var wire 16 - addressM [15:0] $end
$var wire 1 " clk $end
$var wire 1 . jump $end
$var wire 1 / loadA $end
$var wire 1 0 loadD $end
$var wire 1 1 loadPC $end
$var wire 16 2 outM [15:0] $end
$var wire 1 % reset $end
$var wire 1 & writeM $end
$var wire 16 3 pc [15:0] $end
$var wire 1 4 isC $end
$var wire 16 5 instruction [15:0] $end
$var wire 16 6 inM [15:0] $end
$var wire 16 7 d_out [15:0] $end
$var wire 1 8 alu_zero $end
$var wire 16 9 alu_y [15:0] $end
$var wire 16 : alu_out [15:0] $end
$var wire 1 ; alu_neg $end
$var wire 16 < a_out [15:0] $end
$var reg 16 = a_in [15:0] $end
$scope module alu $end
$var wire 1 > f $end
$var wire 1 ? no $end
$var wire 1 @ nx $end
$var wire 1 A ny $end
$var wire 16 B y [15:0] $end
$var wire 1 C zx $end
$var wire 1 D zy $end
$var wire 1 8 zr $end
$var wire 16 E x [15:0] $end
$var wire 1 ; ng $end
$var reg 16 F out [15:0] $end
$var reg 16 G out_f [15:0] $end
$var reg 16 H x1 [15:0] $end
$var reg 16 I y1 [15:0] $end
$upscope $end
$scope module areg $end
$var wire 1 " clk $end
$var wire 16 J in [15:0] $end
$var wire 1 / load $end
$var reg 16 K out [15:0] $end
$upscope $end
$scope module dreg $end
$var wire 1 " clk $end
$var wire 16 L in [15:0] $end
$var wire 1 0 load $end
$var reg 16 M out [15:0] $end
$upscope $end
$scope module pcreg $end
$var wire 1 " clk $end
$var wire 16 N in [15:0] $end
$var wire 1 1 load $end
$var wire 1 % reset $end
$var reg 16 O out [15:0] $end
$upscope $end
$upscope $end
$scope module mem_inst $end
$var wire 16 P address [15:0] $end
$var wire 1 " clk $end
$var wire 16 Q in [15:0] $end
$var wire 1 & load $end
$var wire 4 R pmod [3:0] $end
$var reg 5 S led [4:0] $end
$var reg 16 T out [15:0] $end
$upscope $end
$scope module rom_inst $end
$var wire 12 U address [11:0] $end
$var reg 16 V data [15:0] $end
$upscope $end
$upscope $end
$upscope $end
$enddefinitions $end
$comment Show the parameter values. $end
$dumpall
$end
#0
$dumpvars
b100000000000000 V
b0 U
bx T
bx S
b0 R
bx Q
bx P
b0 O
bx N
bx M
bx L
bx K
b100000000000000 J
bx I
bx H
bx G
bx F
bx E
0D
0C
bx B
0A
0@
0?
0>
b100000000000000 =
bx <
x;
bx :
bx 9
x8
bx 7
bx 6
b100000000000000 5
04
b0 3
bx 2
01
00
1/
0.
bx -
bx ,
bx +
b100000000000000 *
bx )
bx (
b0 '
0&
1%
b0 $
b0 #
0"
bx !
$end
#5000
0;
b0x00000000000000 (
b0x00000000000000 2
b0x00000000000000 Q
b0x00000000000000 :
b0x00000000000000 F
b0x00000000000000 L
b0x00000000000000 G
b100000000000000 I
b100000000000000 9
b100000000000000 B
b0 +
b0 6
b0 T
b100000000000000 ,
b100000000000000 -
b100000000000000 P
b100000000000000 <
b100000000000000 K
b100000000000000 N
1"
#10000
0"
#15000
b0xxxxx +
b0xxxxx 6
b0xxxxx T
1"
#20000
0%
0"
b1 #
b1 $
b1 R
#25000
1;
08
b11111111111xxxxx (
b11111111111xxxxx 2
b11111111111xxxxx Q
b11111111111xxxxx :
b11111111111xxxxx F
b11111111111xxxxx L
b0xxxxx G
b0xxxxx I
b1111111111111111 H
b0xxxxx 9
b0xxxxx B
0/
1&
1?
1@
1C
14
b11111111111xxxxx =
b11111111111xxxxx J
b1111110001001000 *
b1111110001001000 5
b1111110001001000 V
b1 U
b1 '
b1 3
b1 O
1"
#30000
0"
#35000
b1x11111111111111 (
b1x11111111111111 2
b1x11111111111111 Q
b1x11111111111111 :
b1x11111111111111 F
b1x11111111111111 L
b0x00000000000000 G
b100000000000000 I
bx H
b100000000000000 9
b100000000000000 B
1/
0&
b1100100 =
b1100100 J
0@
0C
04
b1100100 *
b1100100 5
b1100100 V
b10 U
b10 '
b10 3
b10 O
1"
#40000
0"
#45000
0;
b1111111111111111 H
0/
01
0.
10
0?
1@
1C
14
b1100100 =
b1100100 J
b1100100 (
b1100100 2
b1100100 Q
b1100100 :
b1100100 F
b1100100 L
b1100100 G
b1100100 I
b1110110000010000 *
b1110110000010000 5
b1110110000010000 V
b1100100 9
b1100100 B
b11 U
b1100100 ,
b1100100 -
b1100100 P
b1100100 <
b1100100 K
b1100100 N
b11 '
b11 3
b11 O
1"
#50000
0"
#55000
1/
00
b0 =
b0 J
0@
0C
04
b0 *
b0 5
b0 V
b1100100 H
b100 U
b1100100 7
b1100100 E
b1100100 M
bx +
bx 6
bx T
b100 '
b100 3
b100 O
1"
#60000
0"
#65000
0/
1&
1A
1D
14
b1100100 =
b1100100 J
08
b1100100 (
b1100100 2
b1100100 Q
b1100100 :
b1100100 F
b1100100 L
b1100100 G
b1111111111111111 I
b1110001100001000 *
b1110001100001000 5
b1110001100001000 V
b0 9
b0 B
b101 U
b0 ,
b0 -
b0 P
b0 <
b0 K
b0 N
b101 '
b101 3
b101 O
1"
#70000
0"
#75000
18
b0 (
b0 2
b0 Q
b0 :
b0 F
b0 L
b0 G
b0 I
1/
0&
b0 =
b0 J
0A
0D
04
b0 *
b0 5
b0 V
b110 U
b110 '
b110 3
b110 O
1"
#80000
0"
#85000
08
b1100011 (
b1100011 2
b1100011 Q
b1100011 :
b1100011 F
b1100011 L
b1100011 G
b1100100 I
b1111111111111111 H
b1100100 9
b1100100 B
0/
1&
1>
1@
1C
14
b1100011 =
b1100011 J
b1111110010001000 *
b1111110010001000 5
b1111110010001000 V
b111 U
b1100100 +
b1100100 6
b1100100 T
b111 '
b111 3
b111 O
1"
#90000
0"
#95000
b1100100 =
b1100100 J
0&
b1100100 (
b1100100 2
b1100100 Q
b1100100 :
b1100100 F
b1100100 L
b1100100 G
b1111111111111111 H
10
0>
b1111110000010000 *
b1111110000010000 5
b1111110000010000 V
b1000 U
b1000 '
b1000 3
b1000 O
1"
#100000
0"
#105000
18
1/
00
0@
0C
04
b0 =
b0 J
b0 (
b0 2
b0 Q
b0 :
b0 F
b0 L
b0 G
b0 I
b1100100 H
b0 *
b0 5
b0 V
b0 9
b0 B
b1001 U
b1100011 +
b1100011 6
b1100011 T
b1001 '
b1001 3
b1001 O
1"
#110000
0"
#115000
08
b1100100 (
b1100100 2
b1100100 Q
b1100100 :
b1100100 F
b1100100 L
b1100100 G
b1111111111111111 I
0/
1A
1D
14
b1100100 =
b1100100 J
b1110001100000010 *
b1110001100000010 5
b1110001100000010 V
b1010 U
b1010 '
b1010 3
b1010 O
1"
#120000
0"
#125000
1;
b1111111111111111 (
b1111111111111111 2
b1111111111111111 Q
b1111111111111111 :
b1111111111111111 F
b1111111111111111 L
b0 G
b0 I
1/
1?
0A
0D
04
b1100100 *
b1100100 5
b1100100 V
b1011 U
b1011 '
b1011 3
b1011 O
1"
#130000
0"
#135000
0;
b1111111111111111 H
0/
01
0.
10
0?
1@
1C
14
b1100100 =
b1100100 J
b1100100 (
b1100100 2
b1100100 Q
b1100100 :
b1100100 F
b1100100 L
b1100100 G
b1100100 I
b1110110000010000 *
b1110110000010000 5
b1110110000010000 V
b1100100 9
b1100100 B
b1100 U
b1100100 ,
b1100100 -
b1100100 P
b1100100 <
b1100100 K
b1100100 N
b1100 '
b1100 3
b1100 O
1"
#140000
0"
#145000
b1100011 =
b1100011 J
b1100011 (
b1100011 2
b1100011 Q
b1100011 :
b1100011 F
b1100011 L
b1100011 G
b1111111111111111 I
b1100100 H
1>
1A
1D
0@
0C
b1110001110010000 *
b1110001110010000 5
b1110001110010000 V
b1101 U
bx +
bx 6
bx T
b1101 '
b1101 3
b1101 O
1"
#150000
0"
#155000
1/
00
0>
0A
0D
04
b110 =
b110 J
b110 *
b110 5
b110 V
b1100000 (
b1100000 2
b1100000 Q
b1100000 :
b1100000 F
b1100000 L
b1100000 G
b1100100 I
b1100011 H
b1110 U
b1100011 7
b1100011 E
b1100011 M
b1110 '
b1110 3
b1110 O
1"
#160000
0"
#165000
0/
1A
1D
14
b1100011 =
b1100011 J
b1100011 (
b1100011 2
b1100011 Q
b1100011 :
b1100011 F
b1100011 L
b1100011 G
b1111111111111111 I
b1110001100000010 *
b1110001100000010 5
b1110001100000010 V
b110 9
b110 B
b1111 U
b110 ,
b110 -
b110 P
b110 <
b110 K
b110 N
b1111 '
b1111 3
b1111 O
1"
#170000
0"
#175000
b10 (
b10 2
b10 Q
b10 :
b10 F
b10 L
b10 G
b110 I
1/
b1101 =
b1101 J
0A
0D
04
b1101 *
b1101 5
b1101 V
b10000 U
b10000 '
b10000 3
b10000 O
1"
#180000
0"
#185000
18
b0 H
0/
11
1.
1>
1D
1C
14
b0 =
b0 J
b0 (
b0 2
b0 Q
b0 :
b0 F
b0 L
b0 G
b0 I
b1110101010000111 *
b1110101010000111 5
b1110101010000111 V
b1101 9
b1101 B
b10001 U
b1101 ,
b1101 -
b1101 P
b1101 <
b1101 K
b1101 N
b10001 '
b10001 3
b10001 O
1"
#190000
0"
#195000
01
0.
b1100010 =
b1100010 J
08
b1100010 (
b1100010 2
b1100010 Q
b1100010 :
b1100010 F
b1100010 L
b1100010 G
b1111111111111111 I
b1100011 H
10
1A
0C
b1110001110010000 *
b1110001110010000 5
b1110001110010000 V
b1101 U
b1101 '
b1101 3
b1101 O
1"
#200000
0"
#205000
18
1/
00
0>
0A
0D
04
b110 =
b110 J
b110 *
b110 5
b110 V
b0 (
b0 2
b0 Q
b0 :
b0 F
b0 L
b0 G
b1101 I
b1100010 H
b1110 U
b1100010 7
b1100010 E
b1100010 M
b1110 '
b1110 3
b1110 O
1"
#210000
0"
#215000
0/
01
0.
1A
1D
14
b1100010 =
b1100010 J
08
b1100010 (
b1100010 2
b1100010 Q
b1100010 :
b1100010 F
b1100010 L
b1100010 G
b1111111111111111 I
b1110001100000010 *
b1110001100000010 5
b1110001100000010 V
b110 9
b110 B
b1111 U
b110 ,
b110 -
b110 P
b110 <
b110 K
b110 N
b1111 '
b1111 3
b1111 O
1"
#220000
0"
#225000
b10 (
b10 2
b10 Q
b10 :
b10 F
b10 L
b10 G
b110 I
1/
b1101 =
b1101 J
0A
0D
04
b1101 *
b1101 5
b1101 V
b10000 U
b10000 '
b10000 3
b10000 O
1"
#230000
0"
#235000
b0 H
0/
11
1.
1>
1D
1C
14
b0 =
b0 J
18
b0 (
b0 2
b0 Q
b0 :
b0 F
b0 L
b0 G
b0 I
b1110101010000111 *
b1110101010000111 5
b1110101010000111 V
b1101 9
b1101 B
b10001 U
b1101 ,
b1101 -
b1101 P
b1101 <
b1101 K
b1101 N
b10001 '
b10001 3
b10001 O
1"
#240000
0"
#245000
01
0.
b1100001 =
b1100001 J
08
b1100001 (
b1100001 2
b1100001 Q
b1100001 :
b1100001 F
b1100001 L
b1100001 G
b1111111111111111 I
b1100010 H
10
1A
0C
b1110001110010000 *
b1110001110010000 5
b1110001110010000 V
b1101 U
b1101 '
b1101 3
b1101 O
1"
#250000
0"
#255000
1/
00
0>
0A
0D
04
b110 =
b110 J
b110 *
b110 5
b110 V
b1 (
b1 2
b1 Q
b1 :
b1 F
b1 L
b1 G
b1101 I
b1100001 H
b1110 U
b1100001 7
b1100001 E
b1100001 M
b1110 '
b1110 3
b1110 O
1"
#260000
0"
#265000
01
0.
0/
1A
1D
14
b1100001 =
b1100001 J
08
b1100001 (
b1100001 2
b1100001 Q
b1100001 :
b1100001 F
b1100001 L
b1100001 G
b1111111111111111 I
b1110001100000010 *
b1110001100000010 5
b1110001100000010 V
b110 9
b110 B
b1111 U
b110 ,
b110 -
b110 P
b110 <
b110 K
b110 N
b1111 '
b1111 3
b1111 O
1"
#270000
0"
#275000
18
b0 (
b0 2
b0 Q
b0 :
b0 F
b0 L
b0 G
b110 I
1/
b1101 =
b1101 J
0A
0D
04
b1101 *
b1101 5
b1101 V
b10000 U
b10000 '
b10000 3
b10000 O
1"
#280000
0"
#285000
b0 H
0/
11
1.
1>
1D
1C
14
b0 =
b0 J
18
b0 (
b0 2
b0 Q
b0 :
b0 F
b0 L
b0 G
b0 I
b1110101010000111 *
b1110101010000111 5
b1110101010000111 V
b1101 9
b1101 B
b10001 U
b1101 ,
b1101 -
b1101 P
b1101 <
b1101 K
b1101 N
b10001 '
b10001 3
b10001 O
1"
#290000
0"
#295000
01
0.
b1100000 =
b1100000 J
08
b1100000 (
b1100000 2
b1100000 Q
b1100000 :
b1100000 F
b1100000 L
b1100000 G
b1111111111111111 I
b1100001 H
10
1A
0C
b1110001110010000 *
b1110001110010000 5
b1110001110010000 V
b1101 U
b1101 '
b1101 3
b1101 O
1"
#300000
0"
#305000
18
1/
00
0>
0A
0D
04
b110 =
b110 J
b110 *
b110 5
b110 V
b0 (
b0 2
b0 Q
b0 :
b0 F
b0 L
b0 G
b1101 I
b1100000 H
b1110 U
b1100000 7
b1100000 E
b1100000 M
b1110 '
b1110 3
b1110 O
1"
#310000
0"
#315000
08
b1100000 (
b1100000 2
b1100000 Q
b1100000 :
b1100000 F
b1100000 L
b1100000 G
0/
01
0.
1A
1D
14
b1100000 =
b1100000 J
b1111111111111111 I
b1110001100000010 *
b1110001100000010 5
b1110001100000010 V
b110 9
b110 B
b1111 U
b110 ,
b110 -
b110 P
b110 <
b110 K
b110 N
b1111 '
b1111 3
b1111 O
1"
#320000
0"
#325000
18
b0 (
b0 2
b0 Q
b0 :
b0 F
b0 L
b0 G
b110 I
1/
b1101 =
b1101 J
0A
0D
04
b1101 *
b1101 5
b1101 V
b10000 U
b10000 '
b10000 3
b10000 O
1"
#330000
0"
#335000
b0 H
0/
11
1.
1>
1D
1C
14
b0 =
b0 J
b0 I
b1110101010000111 *
b1110101010000111 5
b1110101010000111 V
b1101 9
b1101 B
b10001 U
b1101 ,
b1101 -
b1101 P
b1101 <
b1101 K
b1101 N
b10001 '
b10001 3
b10001 O
1"
#340000
0"
#345000
01
0.
b1011111 =
b1011111 J
08
b1011111 (
b1011111 2
b1011111 Q
b1011111 :
b1011111 F
b1011111 L
b1011111 G
b1111111111111111 I
b1100000 H
10
1A
0C
b1110001110010000 *
b1110001110010000 5
b1110001110010000 V
b1101 U
b1101 '
b1101 3
b1101 O
1"
#350000
0"
#355000
1/
00
0>
0A
0D
04
b110 =
b110 J
b110 *
b110 5
b110 V
b1101 (
b1101 2
b1101 Q
b1101 :
b1101 F
b1101 L
b1101 G
b1101 I
b1011111 H
b1110 U
b1011111 7
b1011111 E
b1011111 M
b1110 '
b1110 3
b1110 O
1"
#360000
0"
#365000
0/
1A
1D
14
b1011111 =
b1011111 J
b1011111 (
b1011111 2
b1011111 Q
b1011111 :
b1011111 F
b1011111 L
b1011111 G
b1111111111111111 I
b1110001100000010 *
b1110001100000010 5
b1110001100000010 V
b110 9
b110 B
b1111 U
b110 ,
b110 -
b110 P
b110 <
b110 K
b110 N
b1111 '
b1111 3
b1111 O
1"
#370000
0"
#375000
b110 (
b110 2
b110 Q
b110 :
b110 F
b110 L
b110 G
b110 I
1/
b1101 =
b1101 J
0A
0D
04
b1101 *
b1101 5
b1101 V
b10000 U
b10000 '
b10000 3
b10000 O
1"
#380000
0"
#385000
18
b0 H
0/
11
1.
1>
1D
1C
14
b0 =
b0 J
b0 (
b0 2
b0 Q
b0 :
b0 F
b0 L
b0 G
b0 I
b1110101010000111 *
b1110101010000111 5
b1110101010000111 V
b1101 9
b1101 B
b10001 U
b1101 ,
b1101 -
b1101 P
b1101 <
b1101 K
b1101 N
b10001 '
b10001 3
b10001 O
1"
#390000
0"
#395000
01
0.
b1011110 =
b1011110 J
08
b1011110 (
b1011110 2
b1011110 Q
b1011110 :
b1011110 F
b1011110 L
b1011110 G
b1111111111111111 I
b1011111 H
10
1A
0C
b1110001110010000 *
b1110001110010000 5
b1110001110010000 V
b1101 U
b1101 '
b1101 3
b1101 O
1"
#400000
0"
#405000
1/
00
0>
0A
0D
04
b110 =
b110 J
b110 *
b110 5
b110 V
b1100 (
b1100 2
b1100 Q
b1100 :
b1100 F
b1100 L
b1100 G
b1101 I
b1011110 H
b1110 U
b1011110 7
b1011110 E
b1011110 M
b1110 '
b1110 3
b1110 O
1"
#410000
0"
#415000
0/
1A
1D
14
b1011110 =
b1011110 J
b1011110 (
b1011110 2
b1011110 Q
b1011110 :
b1011110 F
b1011110 L
b1011110 G
b1111111111111111 I
b1110001100000010 *
b1110001100000010 5
b1110001100000010 V
b110 9
b110 B
b1111 U
b110 ,
b110 -
b110 P
b110 <
b110 K
b110 N
b1111 '
b1111 3
b1111 O
1"
#420000
0"
#425000
b110 (
b110 2
b110 Q
b110 :
b110 F
b110 L
b110 G
b110 I
1/
b1101 =
b1101 J
0A
0D
04
b1101 *
b1101 5
b1101 V
b10000 U
b10000 '
b10000 3
b10000 O
1"
#430000
0"
#435000
18
b0 H
0/
11
1.
1>
1D
1C
14
b0 =
b0 J
b0 (
b0 2
b0 Q
b0 :
b0 F
b0 L
b0 G
b0 I
b1110101010000111 *
b1110101010000111 5
b1110101010000111 V
b1101 9
b1101 B
b10001 U
b1101 ,
b1101 -
b1101 P
b1101 <
b1101 K
b1101 N
b10001 '
b10001 3
b10001 O
1"
#440000
0"
#445000
01
0.
b1011101 =
b1011101 J
08
b1011101 (
b1011101 2
b1011101 Q
b1011101 :
b1011101 F
b1011101 L
b1011101 G
b1111111111111111 I
b1011110 H
10
1A
0C
b1110001110010000 *
b1110001110010000 5
b1110001110010000 V
b1101 U
b1101 '
b1101 3
b1101 O
1"
#450000
0"
#455000
1/
00
0>
0A
0D
04
b110 =
b110 J
b110 *
b110 5
b110 V
b1101 (
b1101 2
b1101 Q
b1101 :
b1101 F
b1101 L
b1101 G
b1101 I
b1011101 H
b1110 U
b1011101 7
b1011101 E
b1011101 M
b1110 '
b1110 3
b1110 O
1"
#460000
0"
#465000
0/
1A
1D
14
b1011101 =
b1011101 J
b1011101 (
b1011101 2
b1011101 Q
b1011101 :
b1011101 F
b1011101 L
b1011101 G
b1111111111111111 I
b1110001100000010 *
b1110001100000010 5
b1110001100000010 V
b110 9
b110 B
b1111 U
b110 ,
b110 -
b110 P
b110 <
b110 K
b110 N
b1111 '
b1111 3
b1111 O
1"
#470000
0"
#475000
b100 (
b100 2
b100 Q
b100 :
b100 F
b100 L
b100 G
b110 I
1/
b1101 =
b1101 J
0A
0D
04
b1101 *
b1101 5
b1101 V
b10000 U
b10000 '
b10000 3
b10000 O
1"
#480000
0"
#485000
18
b0 H
0/
11
1.
1>
1D
1C
14
b0 =
b0 J
b0 (
b0 2
b0 Q
b0 :
b0 F
b0 L
b0 G
b0 I
b1110101010000111 *
b1110101010000111 5
b1110101010000111 V
b1101 9
b1101 B
b10001 U
b1101 ,
b1101 -
b1101 P
b1101 <
b1101 K
b1101 N
b10001 '
b10001 3
b10001 O
1"
#490000
0"
#495000
01
0.
b1011100 =
b1011100 J
08
b1011100 (
b1011100 2
b1011100 Q
b1011100 :
b1011100 F
b1011100 L
b1011100 G
b1111111111111111 I
b1011101 H
10
1A
0C
b1110001110010000 *
b1110001110010000 5
b1110001110010000 V
b1101 U
b1101 '
b1101 3
b1101 O
1"
#500000
0"
#505000
1/
00
0>
0A
0D
04
b110 =
b110 J
b110 *
b110 5
b110 V
b1100 (
b1100 2
b1100 Q
b1100 :
b1100 F
b1100 L
b1100 G
b1101 I
b1011100 H
b1110 U
b1011100 7
b1011100 E
b1011100 M
b1110 '
b1110 3
b1110 O
1"
#510000
0"
#515000
0/
1A
1D
14
b1011100 =
b1011100 J
b1011100 (
b1011100 2
b1011100 Q
b1011100 :
b1011100 F
b1011100 L
b1011100 G
b1111111111111111 I
b1110001100000010 *
b1110001100000010 5
b1110001100000010 V
b110 9
b110 B
b1111 U
b110 ,
b110 -
b110 P
b110 <
b110 K
b110 N
b1111 '
b1111 3
b1111 O
1"
#520000
0"
#525000
b100 (
b100 2
b100 Q
b100 :
b100 F
b100 L
b100 G
b110 I
1/
b1101 =
b1101 J
0A
0D
04
b1101 *
b1101 5
b1101 V
b10000 U
b10000 '
b10000 3
b10000 O
1"
#530000
0"
#535000
18
b0 H
0/
11
1.
1>
1D
1C
14
b0 =
b0 J
b0 (
b0 2
b0 Q
b0 :
b0 F
b0 L
b0 G
b0 I
b1110101010000111 *
b1110101010000111 5
b1110101010000111 V
b1101 9
b1101 B
b10001 U
b1101 ,
b1101 -
b1101 P
b1101 <
b1101 K
b1101 N
b10001 '
b10001 3
b10001 O
1"
#540000
0"
#545000
01
0.
b1011011 =
b1011011 J
08
b1011011 (
b1011011 2
b1011011 Q
b1011011 :
b1011011 F
b1011011 L
b1011011 G
b1111111111111111 I
b1011100 H
10
1A
0C
b1110001110010000 *
b1110001110010000 5
b1110001110010000 V
b1101 U
b1101 '
b1101 3
b1101 O
1"
#550000
0"
#555000
1/
00
0>
0A
0D
04
b110 =
b110 J
b110 *
b110 5
b110 V
b1001 (
b1001 2
b1001 Q
b1001 :
b1001 F
b1001 L
b1001 G
b1101 I
b1011011 H
b1110 U
b1011011 7
b1011011 E
b1011011 M
b1110 '
b1110 3
b1110 O
1"
#560000
0"
#565000
0/
1A
1D
14
b1011011 =
b1011011 J
b1011011 (
b1011011 2
b1011011 Q
b1011011 :
b1011011 F
b1011011 L
b1011011 G
b1111111111111111 I
b1110001100000010 *
b1110001100000010 5
b1110001100000010 V
b110 9
b110 B
b1111 U
b110 ,
b110 -
b110 P
b110 <
b110 K
b110 N
b1111 '
b1111 3
b1111 O
1"
#570000
0"
#575000
b10 (
b10 2
b10 Q
b10 :
b10 F
b10 L
b10 G
b110 I
1/
b1101 =
b1101 J
0A
0D
04
b1101 *
b1101 5
b1101 V
b10000 U
b10000 '
b10000 3
b10000 O
1"
#580000
0"
#585000
18
b0 H
0/
11
1.
1>
1D
1C
14
b0 =
b0 J
b0 (
b0 2
b0 Q
b0 :
b0 F
b0 L
b0 G
b0 I
b1110101010000111 *
b1110101010000111 5
b1110101010000111 V
b1101 9
b1101 B
b10001 U
b1101 ,
b1101 -
b1101 P
b1101 <
b1101 K
b1101 N
b10001 '
b10001 3
b10001 O
1"
#590000
0"
#595000
01
0.
b1011010 =
b1011010 J
08
b1011010 (
b1011010 2
b1011010 Q
b1011010 :
b1011010 F
b1011010 L
b1011010 G
b1111111111111111 I
b1011011 H
10
1A
0C
b1110001110010000 *
b1110001110010000 5
b1110001110010000 V
b1101 U
b1101 '
b1101 3
b1101 O
1"
#600000
0"
#605000
1/
00
0>
0A
0D
04
b110 =
b110 J
b110 *
b110 5
b110 V
b1000 (
b1000 2
b1000 Q
b1000 :
b1000 F
b1000 L
b1000 G
b1101 I
b1011010 H
b1110 U
b1011010 7
b1011010 E
b1011010 M
b1110 '
b1110 3
b1110 O
1"
#610000
0"
#615000
0/
1A
1D
14
b1011010 =
b1011010 J
b1011010 (
b1011010 2
b1011010 Q
b1011010 :
b1011010 F
b1011010 L
b1011010 G
b1111111111111111 I
b1110001100000010 *
b1110001100000010 5
b1110001100000010 V
b110 9
b110 B
b1111 U
b110 ,
b110 -
b110 P
b110 <
b110 K
b110 N
b1111 '
b1111 3
b1111 O
1"
#620000
0"
#625000
b10 (
b10 2
b10 Q
b10 :
b10 F
b10 L
b10 G
b110 I
1/
b1101 =
b1101 J
0A
0D
04
b1101 *
b1101 5
b1101 V
b10000 U
b10000 '
b10000 3
b10000 O
1"
#630000
0"
#635000
18
b0 H
0/
11
1.
1>
1D
1C
14
b0 =
b0 J
b0 (
b0 2
b0 Q
b0 :
b0 F
b0 L
b0 G
b0 I
b1110101010000111 *
b1110101010000111 5
b1110101010000111 V
b1101 9
b1101 B
b10001 U
b1101 ,
b1101 -
b1101 P
b1101 <
b1101 K
b1101 N
b10001 '
b10001 3
b10001 O
1"
#640000
0"
#645000
01
0.
b1011001 =
b1011001 J
08
b1011001 (
b1011001 2
b1011001 Q
b1011001 :
b1011001 F
b1011001 L
b1011001 G
b1111111111111111 I
b1011010 H
10
1A
0C
b1110001110010000 *
b1110001110010000 5
b1110001110010000 V
b1101 U
b1101 '
b1101 3
b1101 O
1"
#650000
0"
#655000
1/
00
0>
0A
0D
04
b110 =
b110 J
b110 *
b110 5
b110 V
b1001 (
b1001 2
b1001 Q
b1001 :
b1001 F
b1001 L
b1001 G
b1101 I
b1011001 H
b1110 U
b1011001 7
b1011001 E
b1011001 M
b1110 '
b1110 3
b1110 O
1"
#660000
0"
#665000
01
0.
0/
1A
1D
14
b1011001 =
b1011001 J
08
b1011001 (
b1011001 2
b1011001 Q
b1011001 :
b1011001 F
b1011001 L
b1011001 G
b1111111111111111 I
b1110001100000010 *
b1110001100000010 5
b1110001100000010 V
b110 9
b110 B
b1111 U
b110 ,
b110 -
b110 P
b110 <
b110 K
b110 N
b1111 '
b1111 3
b1111 O
1"
#670000
0"
#675000
18
b0 (
b0 2
b0 Q
b0 :
b0 F
b0 L
b0 G
b110 I
1/
b1101 =
b1101 J
0A
0D
04
b1101 *
b1101 5
b1101 V
b10000 U
b10000 '
b10000 3
b10000 O
1"
#680000
0"
#685000
b0 H
0/
11
1.
1>
1D
1C
14
b0 =
b0 J
18
b0 (
b0 2
b0 Q
b0 :
b0 F
b0 L
b0 G
b0 I
b1110101010000111 *
b1110101010000111 5
b1110101010000111 V
b1101 9
b1101 B
b10001 U
b1101 ,
b1101 -
b1101 P
b1101 <
b1101 K
b1101 N
b10001 '
b10001 3
b10001 O
1"
#690000
0"
#695000
01
0.
b1011000 =
b1011000 J
08
b1011000 (
b1011000 2
b1011000 Q
b1011000 :
b1011000 F
b1011000 L
b1011000 G
b1111111111111111 I
b1011001 H
10
1A
0C
b1110001110010000 *
b1110001110010000 5
b1110001110010000 V
b1101 U
b1101 '
b1101 3
b1101 O
1"
#700000
0"
#705000
1/
00
0>
0A
0D
04
b110 =
b110 J
b110 *
b110 5
b110 V
b1000 (
b1000 2
b1000 Q
b1000 :
b1000 F
b1000 L
b1000 G
b1101 I
b1011000 H
b1110 U
b1011000 7
b1011000 E
b1011000 M
b1110 '
b1110 3
b1110 O
1"
#710000
0"
#715000
01
0.
0/
1A
1D
14
b1011000 =
b1011000 J
08
b1011000 (
b1011000 2
b1011000 Q
b1011000 :
b1011000 F
b1011000 L
b1011000 G
b1111111111111111 I
b1110001100000010 *
b1110001100000010 5
b1110001100000010 V
b110 9
b110 B
b1111 U
b110 ,
b110 -
b110 P
b110 <
b110 K
b110 N
b1111 '
b1111 3
b1111 O
1"
#720000
0"
#725000
18
b0 (
b0 2
b0 Q
b0 :
b0 F
b0 L
b0 G
b110 I
1/
b1101 =
b1101 J
0A
0D
04
b1101 *
b1101 5
b1101 V
b10000 U
b10000 '
b10000 3
b10000 O
1"
#730000
0"
#735000
b0 H
0/
11
1.
1>
1D
1C
14
b0 =
b0 J
18
b0 (
b0 2
b0 Q
b0 :
b0 F
b0 L
b0 G
b0 I
b1110101010000111 *
b1110101010000111 5
b1110101010000111 V
b1101 9
b1101 B
b10001 U
b1101 ,
b1101 -
b1101 P
b1101 <
b1101 K
b1101 N
b10001 '
b10001 3
b10001 O
1"
#740000
0"
#745000
01
0.
b1010111 =
b1010111 J
08
b1010111 (
b1010111 2
b1010111 Q
b1010111 :
b1010111 F
b1010111 L
b1010111 G
b1111111111111111 I
b1011000 H
10
1A
0C
b1110001110010000 *
b1110001110010000 5
b1110001110010000 V
b1101 U
b1101 '
b1101 3
b1101 O
1"
#750000
0"
#755000
1/
00
0>
0A
0D
04
b110 =
b110 J
b110 *
b110 5
b110 V
b101 (
b101 2
b101 Q
b101 :
b101 F
b101 L
b101 G
b1101 I
b1010111 H
b1110 U
b1010111 7
b1010111 E
b1010111 M
b1110 '
b1110 3
b1110 O
1"
#760000
0"
#765000
0/
1A
1D
14
b1010111 =
b1010111 J
b1010111 (
b1010111 2
b1010111 Q
b1010111 :
b1010111 F
b1010111 L
b1010111 G
b1111111111111111 I
b1110001100000010 *
b1110001100000010 5
b1110001100000010 V
b110 9
b110 B
b1111 U
b110 ,
b110 -
b110 P
b110 <
b110 K
b110 N
b1111 '
b1111 3
b1111 O
1"
#770000
0"
#775000
b110 (
b110 2
b110 Q
b110 :
b110 F
b110 L
b110 G
b110 I
1/
b1101 =
b1101 J
0A
0D
04
b1101 *
b1101 5
b1101 V
b10000 U
b10000 '
b10000 3
b10000 O
1"
#780000
0"
#785000
18
b0 H
0/
11
1.
1>
1D
1C
14
b0 =
b0 J
b0 (
b0 2
b0 Q
b0 :
b0 F
b0 L
b0 G
b0 I
b1110101010000111 *
b1110101010000111 5
b1110101010000111 V
b1101 9
b1101 B
b10001 U
b1101 ,
b1101 -
b1101 P
b1101 <
b1101 K
b1101 N
b10001 '
b10001 3
b10001 O
1"
#790000
0"
#795000
01
0.
b1010110 =
b1010110 J
08
b1010110 (
b1010110 2
b1010110 Q
b1010110 :
b1010110 F
b1010110 L
b1010110 G
b1111111111111111 I
b1010111 H
10
1A
0C
b1110001110010000 *
b1110001110010000 5
b1110001110010000 V
b1101 U
b1101 '
b1101 3
b1101 O
1"
#800000
0"
